<svg id="Layer_1" data-name="Layer 1" xmlns="http://www.w3.org/2000/svg" viewBox="0 0 35 60">
  <defs>
    <style>
      .cls-1 {
        fill: #00c000;
      }

      .cls-2 {
        fill: #fff;
      }
    </style>
  </defs>
  <title>pin_Zeleny_velkyArtboard 1</title>
  <g id="Layer_102_copy" data-name="Layer 102 copy">
    <g>
      <path class="cls-1" d="M16.38,0A17.58,17.58,0,0,0,0,16.41v18.2L17.69,60,35,34.81V16.61A17.6,17.6,0,0,0,16.4,0Z"/>
      <path class="cls-2" d="M31.77,31.68,3,31.47V16.61A14.62,14.62,0,0,1,18.79,3.46a14.44,14.44,0,0,1,13,13.15Z"/>
      <path class="cls-1" d="M16.78,12.36h0a4.43,4.43,0,0,0-3.85,4.94l0,.22a4.41,4.41,0,0,0,4.91,3.87l.22,0a4.43,4.43,0,0,0,3.85-4.94l0-.21h0A4.54,4.54,0,0,0,16.78,12.36Z"/>
    </g>
  </g>
</svg>
