<svg xmlns="http://www.w3.org/2000/svg" viewBox="0 0 281.92 51.16">
  <defs>
    <style>
      .cls-1 {
        stroke: #666;
        stroke-miterlimit: 10;
        stroke-width: 2px;
      }

      .cls-2 {
        font-size: 24.58px;
        fill: #fff;
        font-family: HelveticaNeueLTPro-LtCn, Helvetica Neue LT Pro;
      }
    </style>
  </defs>
  <title>butony adminArtboard 90 copy 2</title>
  <g id="favicon">
    <g id="Layer_26" data-name="Layer 26">
      <rect class="cls-1" x="0.6" y="1" width="279.92" height="49.16" rx="4"/>
      <text class="cls-2" transform="translate(89.17 34.57)">ODSTRANIT</text>
    </g>
  </g>
</svg>
